\relax 
\catcode `"\active 
\citation{souza:17}
\citation{souza:17}
\select@language{brazil}
\@writefile{toc}{\select@language{brazil}}
\@writefile{lof}{\select@language{brazil}}
\@writefile{lot}{\select@language{brazil}}
\@writefile{toc}{\contentsline {section}{\numberline {1}Introdu\c c\~ao}{1}}
\citation{markezon:15}
\citation{pereira:10}
\citation{markezon:15}
\@writefile{toc}{\contentsline {section}{\numberline {2}Algoritmos de Ordena\c c\~ao}{2}}
\newlabel{sec:firstpage}{{2}{2}}
\@writefile{toc}{\contentsline {subsection}{\numberline {2.1}Bubble Sort}{2}}
\@writefile{lot}{\contentsline {table}{\numberline {1}{\ignorespaces Algoritmo Bubble Sort}}{2}}
\newlabel{my-label}{{1}{2}}
\@writefile{toc}{\contentsline {subsection}{\numberline {2.2}Insertion Sort}{2}}
\citation{markezon:15}
\@writefile{lot}{\contentsline {table}{\numberline {2}{\ignorespaces Algoritmo Insertion Sort}}{3}}
\newlabel{my-label}{{2}{3}}
\@writefile{toc}{\contentsline {subsection}{\numberline {2.3}Quick Sort}{3}}
\@writefile{lot}{\contentsline {table}{\numberline {3}{\ignorespaces Algoritmo Quick Sort}}{3}}
\newlabel{my-label}{{3}{3}}
\@writefile{lot}{\contentsline {table}{\numberline {4}{\ignorespaces M\'etodo Partition}}{4}}
\newlabel{my-label}{{4}{4}}
\@writefile{toc}{\contentsline {section}{\numberline {3}Classifica\c c\~ao dos algoritmos}{4}}
\@writefile{lot}{\contentsline {table}{\numberline {5}{\ignorespaces Classifica\c c\~ao dos algoritmos de ordena\c c\~ao}}{4}}
\newlabel{my-label}{{5}{4}}
\@writefile{toc}{\contentsline {section}{\numberline {4}Resultados e discuss\~oes}{4}}
\@writefile{toc}{\contentsline {subsection}{\numberline {4.1}Resultados coletados}{4}}
\bibstyle{sbc}
\bibdata{sbc-template}
\bibcite{pereira:10}{Pereira 2010}
\bibcite{souza:17}{Souza et~al. 2017}
\bibcite{markezon:15}{Szwarcfiter and Markezon 2015}
\@writefile{lot}{\contentsline {table}{\numberline {6}{\ignorespaces Resultados dos testes de ordena\c c\~ao com o Quick, Bubble e Insertion Sort}}{5}}
\newlabel{my-label}{{6}{5}}
\@writefile{toc}{\contentsline {section}{\numberline {5}Conclus\~ao}{5}}
